{
  "project_info": {
    "project_number": "196262489406",
    "project_id": "weatherapp-4a3ea",
    "storage_bucket": "weatherapp-4a3ea.appspot.com"
  },
  "client": [
    {
      "client_info": {
        "mobilesdk_app_id": "1:196262489406:android:f4295a263bd29f1fe4d06f",
        "android_client_info": {
          "package_name": "com.example.flutterweatherapp"
        }
      },
      "oauth_client": [
        {
          "client_id": "196262489406-u9vn3opehmuc7o22anmjv9dqqoi7jarp.apps.googleusercontent.com",
          "client_type": 1,
          "android_info": {
            "package_name": "com.example.flutterweatherapp",
            "certificate_hash": "a72883f23baff40c9262126cfb681fb343d19af4"
          }
        },
        {
          "client_id": "196262489406-4b2re6lc0n0lakne165b63212tj417pt.apps.googleusercontent.com",
          "client_type": 3
        }
      ],
      "api_key": [
        {
          "current_key": "AIzaSyC4oTfRDQYG7wIo0C4jhlQ_e19Cl-U14fw"
        }
      ],
      "services": {
        "appinvite_service": {
          "other_platform_oauth_client": [
            {
              "client_id": "196262489406-4b2re6lc0n0lakne165b63212tj417pt.apps.googleusercontent.com",
              "client_type": 3
            },
            {
              "client_id": "196262489406-v36i80uuu08el5jtgresctdhve32j1l9.apps.googleusercontent.com",
              "client_type": 2,
              "ios_info": {
                "bundle_id": "com.example.flutterweatherapp"
              }
            }
          ]
        }
      }
    }
  ],
  "configuration_version": "1"
}